{
  "page": 1,
  "total_results": 75767,
  "total_pages": 3789,
  "results": [
    {
      "original_name": "The Big Bang Theory",
      "genre_ids": [35],
      "name": "The Big Bang Theory",
      "popularity": 269.498,
      "origin_country": ["US"],
      "vote_count": 3230,
      "first_air_date": "2007-09-24",
      "backdrop_path": "/nGsNruW3W27V6r4gkyc3iiEGsKR.jpg",
      "original_language": "en",
      "id": 1418,
      "vote_average": 6.8,
      "overview": "The Big Bang Theory is centered on five characters living in Pasadena, California: roommates Leonard Hofstadter and Sheldon Cooper; Penny, a waitress and aspiring actress who lives across the hall; and Leonard and Sheldon's equally geeky and socially awkward friends and co-workers, mechanical engineer Howard Wolowitz and astrophysicist Raj Koothrappali. The geekiness and intellect of the four guys is contrasted for comic effect with Penny's social skills and common sense.",
      "poster_path": "/ooBGRQBdbGzBxAVfExiO8r7kloA.jpg"
    },
    {
      "original_name": "The Walking Dead",
      "genre_ids": [18, 10759, 10765],
      "name": "The Walking Dead",
      "popularity": 130.304,
      "origin_country": ["US"],
      "vote_count": 3624,
      "first_air_date": "2010-10-31",
      "backdrop_path": "/xVzvD5BPAU4HpleFSo8QOdHkndo.jpg",
      "original_language": "en",
      "id": 1402,
      "vote_average": 7.3,
      "overview": "Sheriff's deputy Rick Grimes awakens from a coma to find a post-apocalyptic world dominated by flesh-eating zombies. He sets out to find his family and encounters many other survivors along the way.",
      "poster_path": "/yn7psGTZsHumHOkLUmYpyrIcA2G.jpg"
    },
    {
      "original_name": "The Simpsons",
      "genre_ids": [16, 35],
      "name": "The Simpsons",
      "popularity": 130.009,
      "origin_country": ["US"],
      "vote_count": 1684,
      "first_air_date": "1989-12-17",
      "backdrop_path": "/4jMlfAIlN1zKNcqE6xjuQsrFse2.jpg",
      "original_language": "en",
      "id": 456,
      "vote_average": 7.1,
      "overview": "Set in Springfield, the average American town, the show focuses on the antics and everyday adventures of the Simpson family; Homer, Marge, Bart, Lisa and Maggie, as well as a virtual cast of thousands. Since the beginning, the series has been a pop culture icon, attracting hundreds of celebrities to guest star. The show has also made name for itself in its fearless satirical take on politics, media and American life in general.",
      "poster_path": "/yTZQkSsxUFJZJe67IenRM0AEklc.jpg"
    },
    {
      "original_name": "Karenjit Kaur",
      "genre_ids": [18],
      "name": "Karenjit Kaur",
      "popularity": 122.867,
      "origin_country": ["IN"],
      "vote_count": 1,
      "first_air_date": "2018-07-16",
      "backdrop_path": null,
      "original_language": "hi",
      "id": 80579,
      "vote_average": 3,
      "overview": "The life journey of Karenjit Kaur, showcasing her beginnings as an innocent, how she became India’s most googled celebrity, and everything which followed in between.",
      "poster_path": null
    },
    {
      "original_name": "Law & Order: Special Victims Unit",
      "genre_ids": [80, 18],
      "name": "Law & Order: Special Victims Unit",
      "popularity": 122.268,
      "origin_country": ["US"],
      "vote_count": 514,
      "first_air_date": "1999-09-20",
      "backdrop_path": "/kOvt2BOOwSAQCT8yo3pM3X2GXjh.jpg",
      "original_language": "en",
      "id": 2734,
      "vote_average": 6.2,
      "overview": "In the criminal justice system, sexually-based offenses are considered especially heinous. In New York City, the dedicated detectives who investigate these vicious felonies are members of an elite squad known as the Special Victims Unit. These are their stories.",
      "poster_path": "/yzMQBlirydvKp4Zgr5FbXlsrRmw.jpg"
    },
    {
      "original_name": "American Horror Story",
      "genre_ids": [18, 9648, 10765],
      "name": "American Horror Story",
      "popularity": 110.325,
      "origin_country": ["US"],
      "vote_count": 832,
      "first_air_date": "2011-10-05",
      "backdrop_path": "/ilKE2RPD8tkynAOHefX9ZclG1yq.jpg",
      "original_language": "en",
      "id": 1413,
      "vote_average": 7.1,
      "overview": "An anthology horror drama series centering on different characters and locations, including a house with a murderous past, an asylum, a witch coven, a freak show, a hotel, a farmhouse in Roanoke and a cult.",
      "poster_path": "/7htwyZzjIUFIIkGQ6HhMgv2kVmM.jpg"
    },
    {
      "original_name": "Marvel's Iron Fist",
      "genre_ids": [80, 18, 10759, 10765],
      "name": "Marvel's Iron Fist",
      "popularity": 97.755,
      "origin_country": ["US"],
      "vote_count": 658,
      "first_air_date": "2017-03-17",
      "backdrop_path": "/xHCfWGlxwbtMeeOnTvxUCZRGnkk.jpg",
      "original_language": "en",
      "id": 62127,
      "vote_average": 6.1,
      "overview": "Danny Rand resurfaces 15 years after being presumed dead. Now, with the power of the Iron Fist, he seeks to reclaim his past and fulfill his destiny.",
      "poster_path": "/nv4nLXbDhcISPP8C1mgaxKU50KO.jpg"
    },
    {
      "original_name": "Friends",
      "id": 1668,
      "name": "Friends",
      "popularity": 96.73,
      "vote_count": 1290,
      "vote_average": 7.9,
      "first_air_date": "1994-09-22",
      "poster_path": "/7buCWBTpiPrCF5Lt023dSC60rgS.jpg",
      "genre_ids": [35],
      "original_language": "en",
      "backdrop_path": "/efiX8iir6GEBWCD0uCFIi5NAyYA.jpg",
      "overview": "The misadventures of a group of friends as they navigate the pitfalls of work, life and love in Manhattan.",
      "origin_country": ["US"]
    },
    {
      "original_name": "Family Guy",
      "id": 1434,
      "name": "Family Guy",
      "popularity": 96.082,
      "vote_count": 1241,
      "vote_average": 6.5,
      "first_air_date": "1999-01-31",
      "poster_path": "/gBGUL1UTUNmdRQT8gA1LUV4yg39.jpg",
      "genre_ids": [16, 35],
      "original_language": "en",
      "backdrop_path": "/pH38r4TWTqq7Mcs6XAlwgzNUeJe.jpg",
      "overview": "Sick, twisted, politically incorrect and Freakin' Sweet animated series featuring the adventures of the dysfunctional Griffin family. Bumbling Peter and long-suffering Lois have three kids. Stewie (a brilliant but sadistic baby bent on killing his mother and taking over the world), Meg (the oldest, and is the most unpopular girl in town) and Chris (the middle kid, he's not very bright but has a passion for movies). The final member of the family is Brian - a talking dog and much more than a pet, he keeps Stewie in check whilst sipping Martinis and sorting through his own life issues.",
      "origin_country": ["US"]
    },
    {
      "original_name": "Game of Thrones",
      "genre_ids": [18, 10759, 10765],
      "name": "Game of Thrones",
      "popularity": 91.96,
      "origin_country": ["US"],
      "vote_count": 4860,
      "first_air_date": "2011-04-17",
      "backdrop_path": "/gX8SYlnL9ZznfZwEH4KJUePBFUM.jpg",
      "original_language": "en",
      "id": 1399,
      "vote_average": 8.2,
      "overview": "Seven noble families fight for control of the mythical land of Westeros. Friction between the houses leads to full-scale war. All while a very ancient evil awakens in the farthest north. Amidst the war, a neglected military order of misfits, the Night's Watch, is all that stands between the realms of men and icy horrors beyond.",
      "poster_path": "/gwPSoYUHAKmdyVywgLpKKA4BjRr.jpg"
    },
    {
      "original_name": "The Flash",
      "genre_ids": [18, 10765],
      "name": "The Flash",
      "popularity": 91.231,
      "origin_country": ["US"],
      "vote_count": 2236,
      "first_air_date": "2014-10-07",
      "backdrop_path": "/mmxxEpTqVdwBlu5Pii7tbedBkPC.jpg",
      "original_language": "en",
      "id": 60735,
      "vote_average": 6.7,
      "overview": "After a particle accelerator causes a freak storm, CSI Investigator Barry Allen is struck by lightning and falls into a coma. Months later he awakens with the power of super speed, granting him the ability to move through Central City like an unseen guardian angel. Though initially excited by his newfound powers, Barry is shocked to discover he is not the only \"meta-human\" who was created in the wake of the accelerator explosion -- and not everyone is using their new powers for good. Barry partners with S.T.A.R. Labs and dedicates his life to protect the innocent. For now, only a few close friends and associates know that Barry is literally the fastest man alive, but it won't be long before the world learns what Barry Allen has become...The Flash.",
      "poster_path": "/lUFK7ElGCk9kVEryDJHICeNdmd1.jpg"
    },
    {
      "original_name": "Supernatural",
      "genre_ids": [18, 9648, 10765],
      "name": "Supernatural",
      "popularity": 89.185,
      "origin_country": ["US"],
      "vote_count": 1540,
      "first_air_date": "2005-09-13",
      "backdrop_path": "/koMUCyGWNtH5LXYbGqjsUwvgtsT.jpg",
      "original_language": "en",
      "id": 1622,
      "vote_average": 7.2,
      "overview": "When they were boys, Sam and Dean Winchester lost their mother to a mysterious and demonic supernatural force. Subsequently, their father raised them to be soldiers. He taught them about the paranormal evil that lives in the dark corners and on the back roads of America ... and he taught them how to kill it. Now, the Winchester brothers crisscross the country in their '67 Chevy Impala, battling every kind of supernatural threat they encounter along the way. ",
      "poster_path": "/pui1V389cQft0BVFu9pbsYLEW1Q.jpg"
    },
    {
      "original_name": "Grey's Anatomy",
      "genre_ids": [18],
      "name": "Grey's Anatomy",
      "popularity": 87.404,
      "origin_country": ["US"],
      "vote_count": 768,
      "first_air_date": "2005-03-27",
      "backdrop_path": "/y6JABtgWMVYPx84Rvy7tROU5aNH.jpg",
      "original_language": "en",
      "id": 1416,
      "vote_average": 6.3,
      "overview": "Follows the personal and professional lives of a group of doctors at Seattle’s Grey Sloan Memorial Hospital.",
      "poster_path": "/mgOZSS2FFIGtfVeac1buBw3Cx5w.jpg"
    },
    {
      "original_name": "Doctor Who",
      "genre_ids": [18, 10759, 10765],
      "name": "Doctor Who",
      "popularity": 87.292,
      "origin_country": ["GB"],
      "vote_count": 1219,
      "first_air_date": "2005-03-26",
      "backdrop_path": "/tQkigP2fItdzJWvtIhBvHxgs5yE.jpg",
      "original_language": "en",
      "id": 57243,
      "vote_average": 7,
      "overview": "The Doctor looks and seems human. He's handsome, witty, and could be mistaken for just another man in the street. But he is a Time Lord: a 900 year old alien with 2 hearts, part of a gifted civilization who mastered time travel. The Doctor saves planets for a living – more of a hobby actually, and he's very, very good at it. He's saved us from alien menaces and evil from before time began – but just who is he?",
      "poster_path": "/3EcYZhBMAvVw4czcDLg9Sd0FuzQ.jpg"
    },
    {
      "original_name": "NCIS",
      "genre_ids": [80, 18, 10759],
      "name": "NCIS",
      "popularity": 85.614,
      "origin_country": ["US"],
      "vote_count": 608,
      "first_air_date": "2003-09-23",
      "backdrop_path": "/nymeWHYQ1JaWP2wyNW5a5WHiDCd.jpg",
      "original_language": "en",
      "id": 4614,
      "vote_average": 6.7,
      "overview": "From murder and espionage to terrorism and stolen submarines, a team of special agents investigates any crime that has a shred of evidence connected to Navy and Marine Corps personnel, regardless of rank or position.",
      "poster_path": "/1ubAPydzsb9VzhqeUGGDA7DZCUy.jpg"
    },
    {
      "original_name": "Marvel's Agents of S.H.I.E.L.D.",
      "genre_ids": [18, 10759, 10765],
      "name": "Marvel's Agents of S.H.I.E.L.D.",
      "popularity": 84.635,
      "origin_country": ["US"],
      "vote_count": 1152,
      "first_air_date": "2013-09-24",
      "backdrop_path": "/qtr5i6hOm6oVzTYl3jOQAYP3oc7.jpg",
      "original_language": "en",
      "id": 1403,
      "vote_average": 6.7,
      "overview": "Agent Phil Coulson of S.H.I.E.L.D. (Strategic Homeland Intervention, Enforcement and Logistics Division) puts together a team of agents to investigate the new, the strange and the unknown around the globe, protecting the ordinary from the extraordinary.",
      "poster_path": "/xjm6uVktPuKXNILwjLXwVG5d5BU.jpg"
    },
    {
      "original_name": "Shameless",
      "genre_ids": [35, 18],
      "name": "Shameless",
      "popularity": 81.622,
      "origin_country": ["US"],
      "vote_count": 706,
      "first_air_date": "2011-01-09",
      "backdrop_path": "/zjOj2gnDJYFdYt6R7FtuHn7yrPr.jpg",
      "original_language": "en",
      "id": 34307,
      "vote_average": 7.9,
      "overview": "Chicagoan Frank Gallagher is the proud single dad of six smart, industrious, independent kids, who without him would be... perhaps better off. When Frank's not at the bar spending what little money they have, he's passed out on the floor. But the kids have found ways to grow up in spite of him. They may not be like any family you know, but they make no apologies for being exactly who they are.",
      "poster_path": "/iRyQTp2L437k6zfFCvZSOWaxQFA.jpg"
    },
    {
      "original_name": "Two and a Half Men",
      "genre_ids": [35],
      "name": "Two and a Half Men",
      "popularity": 73.879,
      "origin_country": ["US"],
      "vote_count": 576,
      "first_air_date": "2003-09-22",
      "backdrop_path": "/27cshLy9anL9G0g6tBQjWkPACx5.jpg",
      "original_language": "en",
      "id": 2691,
      "vote_average": 6.3,
      "overview": "A hedonistic jingle writer's free-wheeling life comes to an abrupt halt when his brother and 10-year-old nephew move into his beach-front house.",
      "poster_path": "/A9QDK4OWpv41W27kCv0LXe30k9S.jpg"
    },
    {
      "original_name": "South Park",
      "genre_ids": [16, 35],
      "name": "South Park",
      "popularity": 73.298,
      "origin_country": ["US"],
      "vote_count": 920,
      "first_air_date": "1997-08-13",
      "backdrop_path": "/mSDKNVvDfitFE6Fb6fSSl5DQmgS.jpg",
      "original_language": "en",
      "id": 2190,
      "vote_average": 7.8,
      "overview": "Follows the misadventures of four irreverent grade-schoolers in the quiet, dysfunctional town of South Park, Colorado.",
      "poster_path": "/v9zc0cZpy5aPSfAy6Tgb6I1zWgV.jpg"
    },
    {
      "original_name": "Vikings",
      "genre_ids": [18, 10759],
      "name": "Vikings",
      "popularity": 73.182,
      "origin_country": ["CA"],
      "vote_count": 1304,
      "first_air_date": "2013-03-03",
      "backdrop_path": "/A30ZqEoDbchvE7mCZcSp6TEwB1Q.jpg",
      "original_language": "en",
      "id": 44217,
      "vote_average": 7.5,
      "overview": "Vikings follows the adventures of Ragnar Lothbrok, the greatest hero of his age. The series tells the sagas of Ragnar's band of Viking brothers and his family, as he rises to become King of the Viking tribes. As well as being a fearless warrior, Ragnar embodies the Norse traditions of devotion to the gods. Legend has it that he was a direct descendant of Odin, the god of war and warriors.",
      "poster_path": "/oktTNFM8PzdseiK1X0E0XhB6LvP.jpg"
    }
  ]
}
