{
  "page": 1,
  "total_results": 378636,
  "total_pages": 18932,
  "results": [
    {
      "vote_count": 221,
      "id": 346910,
      "video": false,
      "vote_average": 5.7,
      "title": "The Predator",
      "popularity": 252.73,
      "poster_path": "/wMq9kQXTeQCHUZOG4fAe5cAxyUA.jpg",
      "original_language": "en",
      "original_title": "The Predator",
      "genre_ids": [27, 878, 28, 35],
      "backdrop_path": "/f4E0ocYeToEuXvczZv6QArrMDJ.jpg",
      "adult": false,
      "overview": "From the outer reaches of space to the small-town streets of suburbia, the hunt comes home. Now, the universe’s most lethal hunters are stronger, smarter and deadlier than ever before, having genetically upgraded themselves with DNA from other species. When a young boy accidentally triggers their return to Earth, only a ragtag crew of ex-soldiers and a disgruntled science teacher can prevent the end of the human race.",
      "release_date": "2018-09-13"
    },
    {
      "vote_count": 1669,
      "id": 348350,
      "video": false,
      "vote_average": 6.7,
      "title": "Solo: A Star Wars Story",
      "popularity": 242.322,
      "poster_path": "/4oD6VEccFkorEBTEDXtpLAaz0Rl.jpg",
      "original_language": "en",
      "original_title": "Solo: A Star Wars Story",
      "genre_ids": [28, 12, 878],
      "backdrop_path": "/96B1qMN9RxrAFu6uikwFhQ6N6J9.jpg",
      "adult": false,
      "overview": "Through a series of daring escapades deep within a dark and dangerous criminal underworld, Han Solo meets his mighty future copilot Chewbacca and encounters the notorious gambler Lando Calrissian.",
      "release_date": "2018-05-15"
    },
    {
      "vote_count": 471,
      "id": 439079,
      "video": false,
      "vote_average": 6,
      "title": "The Nun",
      "popularity": 198.619,
      "poster_path": "/sFC1ElvoKGdHJIWRpNB3xWJ9lJA.jpg",
      "original_language": "en",
      "original_title": "The Nun",
      "genre_ids": [27, 9648, 53],
      "backdrop_path": "/fgsHxz21B27hOOqQBiw9L6yWcM7.jpg",
      "adult": false,
      "overview": "When a young nun at a cloistered abbey in Romania takes her own life, a priest with a haunted past and a novitiate on the threshold of her final vows are sent by the Vatican to investigate. Together they uncover the order’s unholy secret. Risking not only their lives but their faith and their very souls, they confront a malevolent force in the form of the same demonic nun that first terrorized audiences in “The Conjuring 2,” as the abbey becomes a horrific battleground between the living and the damned.",
      "release_date": "2018-09-05"
    },
    {
      "vote_count": 8117,
      "id": 299536,
      "video": false,
      "vote_average": 8.3,
      "title": "Avengers: Infinity War",
      "popularity": 193.69,
      "poster_path": "/7WsyChQLEftFiDOVTGkv3hFpyyt.jpg",
      "original_language": "en",
      "original_title": "Avengers: Infinity War",
      "genre_ids": [12, 878, 28],
      "backdrop_path": "/lmZFxXgJE3vgrciwuDib0N8CfQo.jpg",
      "adult": false,
      "overview": "As the Avengers and their allies have continued to protect the world from threats too large for any one hero to handle, a new danger has emerged from the cosmic shadows: Thanos. A despot of intergalactic infamy, his goal is to collect all six Infinity Stones, artifacts of unimaginable power, and use them to inflict his twisted will on all of reality. Everything the Avengers have fought for has led up to this moment - the fate of Earth and existence itself has never been more uncertain.",
      "release_date": "2018-04-25"
    },
    {
      "vote_count": 3414,
      "id": 351286,
      "video": false,
      "vote_average": 6.5,
      "title": "Jurassic World: Fallen Kingdom",
      "popularity": 178.036,
      "poster_path": "/c9XxwwhPHdaImA2f1WEfEsbhaFB.jpg",
      "original_language": "en",
      "original_title": "Jurassic World: Fallen Kingdom",
      "genre_ids": [28, 12, 878],
      "backdrop_path": "/3s9O5af2xWKWR5JzP2iJZpZeQQg.jpg",
      "adult": false,
      "overview": "Three years after the demise of Jurassic World, a volcanic eruption threatens the remaining dinosaurs on the isla Nublar, so Claire Dearing, the former park manager, recruits Owen Grady to help prevent the extinction of the dinosaurs once again.",
      "release_date": "2018-06-06"
    },
    {
      "vote_count": 703,
      "id": 442249,
      "video": false,
      "vote_average": 6,
      "title": "The First Purge",
      "popularity": 151.976,
      "poster_path": "/2slvblTroiT1lY9bYLK7Amigo1k.jpg",
      "original_language": "en",
      "original_title": "The First Purge",
      "genre_ids": [28, 878, 53, 27],
      "backdrop_path": "/r4clWIxKeWoqrHspQP0XunuUmB7.jpg",
      "adult": false,
      "overview": "To push the crime rate below one percent for the rest of the year, the New Founding Fathers of America test a sociological theory that vents aggression for one night in one isolated community. But when the violence of oppressors meets the rage of the others, the contagion will explode from the trial-city borders and spread across the nation.",
      "release_date": "2018-07-04"
    },
    {
      "vote_count": 21,
      "id": 135870,
      "video": false,
      "vote_average": 4,
      "title": "Rebel",
      "popularity": 142.332,
      "poster_path": "/dNTzorrVmcJ25fUGzs9FfkoXb0P.jpg",
      "original_language": "te",
      "original_title": "రెబెల్",
      "genre_ids": [28],
      "backdrop_path": "/yCGEkEqy7uOo7NwlbgOzGrI8i43.jpg",
      "adult": false,
      "overview": "Rebel is a romantic action revenge drama, which revolves around the story of a happy-go-lucky guy. The hero (Prabhas) is the son of a good-natured mafia don (Krishnam Raju). The hero becomes Rebel after his father is killed. How he takes revenge upon the people, who killed his father, will form the second half of the movie. Apart from directing, Raghava Lawrence also handles the choreography, screenplay and music direction for the film. The film is being produced by J. Bhaghawan and J. Pulla Rao under Sri Balaji Cine Media banner.",
      "release_date": "2012-09-28"
    },
    {
      "vote_count": 907,
      "id": 345940,
      "video": false,
      "vote_average": 6.1,
      "title": "The Meg",
      "popularity": 140.252,
      "poster_path": "/eyWICPcxOuTcDDDbTMOZawoOn8d.jpg",
      "original_language": "en",
      "original_title": "The Meg",
      "genre_ids": [28, 878, 53],
      "backdrop_path": "/rH79sB6Nkx4cMW3JzsUy7wK0rhX.jpg",
      "adult": false,
      "overview": "A deep sea submersible pilot revisits his past fears in the Mariana Trench, and accidentally unleashes the seventy foot ancestor of the Great White Shark believed to be extinct.",
      "release_date": "2018-08-09"
    },
    {
      "vote_count": 33,
      "id": 414919,
      "video": false,
      "vote_average": 6.5,
      "title": "Hart Beat",
      "popularity": 124.218,
      "poster_path": "/h1PBdhD1c6xnTV6c7B4d58OESYB.jpg",
      "original_language": "nl",
      "original_title": "Hart Beat",
      "genre_ids": [10751, 35, 18],
      "backdrop_path": "/pJG7QnbqUeFNKre3BTVvrv96ZUX.jpg",
      "adult": false,
      "overview": "Making music means everything for the shy Zoë. But since her father left, she never played guitar again. When she is hit by the bus from Mik, superstar Bieber size, sparks fly allthough she is not a fan at first. Off course, people around the two love birds dont exactly cooperate to make things work...",
      "release_date": "2016-10-12"
    },
    {
      "vote_count": 27,
      "id": 507569,
      "video": false,
      "vote_average": 5.6,
      "title": "The Seven Deadly Sins: Prisoners of the Sky",
      "popularity": 112.839,
      "poster_path": "/r6pPUVUKU5eIpYj4oEzidk5ZibB.jpg",
      "original_language": "ja",
      "original_title": "The Seven Deadly Sins: Prisoners of the Sky",
      "genre_ids": [28, 12, 14, 16],
      "backdrop_path": "/uKwOX7MtKlAaGeCQe6c4jc1vZpj.jpg",
      "adult": false,
      "overview": "The Seven Deadly Sins travel to a remote land in search of the phantom ingredient \"sky fish.\" Meliodas and Hawk end up at a \"Sky Palace\" that exists above the clouds, where all the residents have wings. Meliodas is mistaken for a boy who committed a crime and is thrown in prison. Meanwhile, the residents are preparing a ceremony for defense against a ferocious beast that awakens once every 3,000 years. But the Six Knights of Black, a Demon Clan army, arrives and removes the seal on the beast in order to threaten the lives of the residents of Sky Palace. Meliodas and his allies meet the Six Knights of Black in battle.",
      "release_date": "2018-08-18"
    },
    {
      "vote_count": 8140,
      "id": 284054,
      "video": false,
      "vote_average": 7.4,
      "title": "Black Panther",
      "popularity": 108.908,
      "poster_path": "/uxzzxijgPIY7slzFvMotPv8wjKA.jpg",
      "original_language": "en",
      "original_title": "Black Panther",
      "genre_ids": [28, 12, 14, 878],
      "backdrop_path": "/b6ZJZHUdMEFECvGiDpJjlfUWela.jpg",
      "adult": false,
      "overview": "King T'Challa returns home from America to the reclusive, technologically advanced African nation of Wakanda to serve as his country's new leader. However, T'Challa soon finds that he is challenged for the throne by factions within his own country as well as without. Using powers reserved to Wakandan kings, T'Challa assumes the Black Panther mantel to join with girlfriend Nakia, the queen-mother, his princess-kid sister, members of the Dora Milaje (the Wakandan 'special forces') and an American secret agent, to prevent Wakanda from being dragged into a world war.",
      "release_date": "2018-02-13"
    },
    {
      "vote_count": 5008,
      "id": 383498,
      "video": false,
      "vote_average": 7.5,
      "title": "Deadpool 2",
      "popularity": 103.244,
      "poster_path": "/to0spRl1CMDvyUbOnbb4fTk3VAd.jpg",
      "original_language": "en",
      "original_title": "Deadpool 2",
      "genre_ids": [28, 35, 878],
      "backdrop_path": "/3P52oz9HPQWxcwHOwxtyrVV1LKi.jpg",
      "adult": false,
      "overview": "Wisecracking mercenary Deadpool battles the evil and powerful Cable and other bad guys to save a boy's life.",
      "release_date": "2018-05-15"
    },
    {
      "vote_count": 1567,
      "id": 353081,
      "video": false,
      "vote_average": 7.3,
      "title": "Mission: Impossible - Fallout",
      "popularity": 97.468,
      "poster_path": "/AkJQpZp9WoNdj7pLYSj1L0RcMMN.jpg",
      "original_language": "en",
      "original_title": "Mission: Impossible - Fallout",
      "genre_ids": [12, 28, 53],
      "backdrop_path": "/a9fRqsl6P27qxbDSb4pBXNv9Fwl.jpg",
      "adult": false,
      "overview": "When an IMF mission ends badly, the world is faced with dire consequences. As Ethan Hunt takes it upon himself to fulfill his original briefing, the CIA begin to question his loyalty and his motives. The IMF team find themselves in a race against time, hunted by assassins while trying to prevent a global catastrophe.",
      "release_date": "2018-07-25"
    },
    {
      "vote_count": 2,
      "id": 530442,
      "video": false,
      "vote_average": 5.5,
      "title": "My Teacher, My Obsession",
      "popularity": 97.413,
      "poster_path": "/6Doj2zzTSVF0GWY5huVk38xKUGy.jpg",
      "original_language": "en",
      "original_title": "My Teacher, My Obsession",
      "genre_ids": [18, 53, 10770],
      "backdrop_path": "/e71OYBLTWRayGVlUYAdVya9XrAB.jpg",
      "adult": false,
      "overview": "Riley is struggling to make friends after transferring to a new high school where her father, Chris, is an English teacher. When she meets Kyla, they quickly becomes close friends. However, the friendship takes a strange turn when Riley learns that Kyla is obsessed with her dad. Will Kyla successfully seduce Chris and start a twisted new life with him by removing everyone in her path, or will Riley be able to save her father from Kyla’s treacherous plot before it’s too late?",
      "release_date": "2018-06-12"
    },
    {
      "vote_count": 15466,
      "id": 157336,
      "video": false,
      "vote_average": 8.2,
      "title": "Interstellar",
      "popularity": 97.312,
      "poster_path": "/nBNZadXqJSdt05SHLqgT0HuC5Gm.jpg",
      "original_language": "en",
      "original_title": "Interstellar",
      "genre_ids": [12, 18, 878],
      "backdrop_path": "/xu9zaAevzQ5nnrsXN6JcahLnG4i.jpg",
      "adult": false,
      "overview": "Interstellar chronicles the adventures of a group of explorers who make use of a newly discovered wormhole to surpass the limitations on human space travel and conquer the vast distances involved in an interstellar voyage.",
      "release_date": "2014-11-05"
    },
    {
      "vote_count": 303,
      "id": 400535,
      "video": false,
      "vote_average": 6.6,
      "title": "Sicario: Day of the Soldado",
      "popularity": 90.877,
      "poster_path": "/msqWSQkU403cQKjQHnWLnugv7EY.jpg",
      "original_language": "en",
      "original_title": "Sicario: Day of the Soldado",
      "genre_ids": [28, 80, 18, 53],
      "backdrop_path": "/tnwMCH4yLBY4qpe6Nr4n66u4U3f.jpg",
      "adult": false,
      "overview": "Agent Matt Graver teams up with operative Alejandro Gillick to prevent Mexican drug cartels from smuggling terrorists across the United States border.",
      "release_date": "2018-06-27"
    },
    {
      "vote_count": 8384,
      "id": 210577,
      "video": false,
      "vote_average": 7.9,
      "title": "Gone Girl",
      "popularity": 87.984,
      "poster_path": "/gdiLTof3rbPDAmPaCf4g6op46bj.jpg",
      "original_language": "en",
      "original_title": "Gone Girl",
      "genre_ids": [9648, 53, 18],
      "backdrop_path": "/8ZNGBfGoN3uI5Akj5vEUDMxvmGO.jpg",
      "adult": false,
      "overview": "With his wife's disappearance having become the focus of an intense media circus, a man sees the spotlight turned on him when it's suspected that he may not be innocent.",
      "release_date": "2014-10-01"
    },
    {
      "vote_count": 8326,
      "id": 284053,
      "video": false,
      "vote_average": 7.5,
      "title": "Thor: Ragnarok",
      "popularity": 86.539,
      "poster_path": "/rzRwTcFvttcN1ZpX2xv4j3tSdJu.jpg",
      "original_language": "en",
      "original_title": "Thor: Ragnarok",
      "genre_ids": [28, 12, 35, 14, 878],
      "backdrop_path": "/kaIfm5ryEOwYg8mLbq8HkPuM1Fo.jpg",
      "adult": false,
      "overview": "Thor is on the other side of the universe and finds himself in a race against time to get back to Asgard to stop Ragnarok, the prophecy of destruction to his homeworld and the end of Asgardian civilization, at the hands of an all-powerful new threat, the ruthless Hela.",
      "release_date": "2017-10-25"
    },
    {
      "vote_count": 546,
      "id": 400155,
      "video": false,
      "vote_average": 6.9,
      "title": "Hotel Transylvania 3: Summer Vacation",
      "popularity": 84.823,
      "poster_path": "/gjAFM4xhA5vyLxxKMz38ujlUfDL.jpg",
      "original_language": "en",
      "original_title": "Hotel Transylvania 3: Summer Vacation",
      "genre_ids": [10751, 14, 35, 16],
      "backdrop_path": "/m03jul0YdVEOFXEQVUv6pOVQYGL.jpg",
      "adult": false,
      "overview": "Dracula, Mavis, Johnny and the rest of the Drac Pack take a vacation on a luxury Monster Cruise Ship, where Dracula falls in love with the ship's captain, Ericka, who's secretly a descendant of Abraham Van Helsing, the notorious monster slayer.",
      "release_date": "2018-06-30"
    },
    {
      "vote_count": 14709,
      "id": 118340,
      "video": false,
      "vote_average": 7.9,
      "title": "Guardians of the Galaxy",
      "popularity": 83.615,
      "poster_path": "/y31QB9kn3XSudA15tV7UWQ9XLuW.jpg",
      "original_language": "en",
      "original_title": "Guardians of the Galaxy",
      "genre_ids": [28, 878, 12],
      "backdrop_path": "/bHarw8xrmQeqf3t8HpuMY7zoK4x.jpg",
      "adult": false,
      "overview": "Light years from Earth, 26 years after being abducted, Peter Quill finds himself the prime target of a manhunt after discovering an orb wanted by Ronan the Accuser.",
      "release_date": "2014-07-30"
    }
  ]
}
